{
  "type": "service_account",
  "project_id": "injenia-gcp-demo",
  "private_key_id": "7fb1495dbf759c9036f56ad4a5e6d8fb824262b4",
  "private_key": "-----BEGIN PRIVATE KEY-----\nMIIEvQIBADANBgkqhkiG9w0BAQEFAASCBKcwggSjAgEAAoIBAQC0WRVDMxmj6U26\nMyx/Iv8Vn5EcsajdUPXi+6BNGbucTGcCf6tvnSQuXct9/oip4jkGimvRlEeXKVC6\nBK21+zOHImRm4vT08V+8cH+8Beo5QWyPhA6g8xl3Z8MKuLRePcmAxAAMJHsKEFyp\nj7VnuqdGPXlzEAyDUEvhpK2beBXoyNMfh6NmxU+no74aMJT5NjeKsrZ2AMqGmf+V\nlnUbVU6xVPgku25GurhHIiQUFugJh9vy+epk8ti8AJFi4e6iR3z4A9n1li5N/b/f\nQC0mGw/EN3jm8vTT+L1Ky+kuW5r7BKFNC2DrqKSDJbVTcK9yfHojwu/0RA1N9oHc\njSLJcjHBAgMBAAECggEANJ6XSxOSRBZSpOTAc1nRJkx3yPD3DZfNHkx/gW9kI17R\nYVPBv9+QCm04bcsBsdt8+vERM0V5u9uEn7m0u1ePObrpo3FNulfgsHj8c+4f4FO7\n6oXDxOcZA5NFP5ATpDmP3N+TCffs5EtQ1fJFof2+R4qxMEa69+dKNIxZUPaxIclV\nDoJae9MP/qpWZK7a3EFZbQDDCnM4SVRhH0m+KIQZhpb75qa0rJAF8R46goh9reJc\nkXF3HconJCZ+wIjFiKzxTCIbLACUq/RW5EyZ+6AOl8i6DtQcv6WWn2BEejLzaIZ2\nH7VQu9LKVkX/Ma+6ZD5XcC7PvGZxZaW7ddLSPI3XZwKBgQDcjgAXK8Vs0cBAubfB\nN7s9uXQyDRyXQTcqbVT+w+cBJ3hBUmDoArwCxO7Yc9qwVv0pOUE10DUDAE+0FTNM\noflalj9tUCZi81iIhhSTWD8vYqnKSpQMWuyuubTizCcS7fuqv8r7tOcQyA8+PYay\nIh2LllLbotrkH/jFdVTM1vVaFwKBgQDRVOjVEN3ekX93ePEqTuVQm4Wlv/h6484N\nOWha91WkOUd78Gv6aQRb1Vn1XPJfcQv7DqDR/b9NQ7Y8AOomCPlr8Q+kJSD01HF1\nwUT0Oxd1CaLq7GAlPOIfMfnSIWNH+daYXUoizqS8rWhJbFJZNcW1qo9qTND3zaD3\n891bNdyx5wKBgQCk0V0R87zaYDjKZb8DHjHHo6JIkPHPuoWOKBv/MsibXTKJphUS\n7JAxhZdzm8hORQN03ft0Sn6DGqV1Tu6CEvzzjBokB2RYR7/ebkxL/ANj1thJesf+\nH6iFvfOGFMgSZlPOuvrmdL7EFK0HdxUEY2gu2wxaY+4t0hKnBNJ1LSI2ywKBgEkQ\npRAxie+0w1QVL8A/t4TSM+ztu7JRL0uoXQdbS1Y98/iLq3TFERNovbSJ08OCdtcT\nfQiu1AYI+2OoQhIykbSeeIInv4AVYuDiK8o/kel1CpuLE+gLfzW6QOOaacfmqYOX\nFFhf3lpJAJyYJYoj3bWSKerFky7bZDMHuJysiTLDAoGAYm+xsJK+y3wHjD668CqR\nF9YsTO1siRo8qLvl5tCIJpKOihV0GBTKLdsISIJSlSwDw5yXLBgKWo1HkJrbmdMG\nYMTlmW+P11ee0ZH3rcG/kKKlyUUKycqMGIXGX5+qpVOVPJRaSF0k6pejhG0M0z89\n79P13FVVVKMKEUS9ZnZbst0=\n-----END PRIVATE KEY-----\n",
  "client_email": "bigdata-iot-sa@injenia-gcp-demo.iam.gserviceaccount.com",
  "client_id": "101369596191933157788",
  "auth_uri": "https://accounts.google.com/o/oauth2/auth",
  "token_uri": "https://accounts.google.com/o/oauth2/token",
  "auth_provider_x509_cert_url": "https://www.googleapis.com/oauth2/v1/certs",
  "client_x509_cert_url": "https://www.googleapis.com/robot/v1/metadata/x509/bigdata-iot-sa%40injenia-gcp-demo.iam.gserviceaccount.com"
}
